Stepping into {ggplot2} internals with {ggtrace}
…
$orientation
[1] NA

$width
[1] 0.7

$flipped_aes
[1] FALSE

Inspect compute_layer()

compute_layer_input$data %>% tibble() %>% print(n = 3)

# A tibble: 342 × 5
  fill   x              y PANEL group
  <fct>  <mppd_dsc> <dbl> <fct> <int>
1 Adelie 1            181 1         1
2 Adelie 1            186 1         1
3 Adelie 1            195 1         1
# … with 339 more rows
…
